{
    "theme": {
        "title": "Theme",
        "possibleValues": {
            "R": "Remembering", 
            "F": "Forgetting"
        }
    },
    "topic": {
        "title": "Topic",
        "possibleValues": {
            "sr": "Social Life → Residence",
            "se": "Social Life → Education",
            "sw": "Social Life → Work",
            "sc": "Social Life → Culture",
            "vd": "Violence → Death &amp; Deportation",
            "vr": "Violence → Repression",
            "vs": "Violence → Struggle",
            "va": "Violence → Administration"
        }
    },
    "topicCoarse": {
        "title": "Topic",
        "possibleValues": {
            "s": "Social Life",
            "v": "Violence",
            "b": "Both"
        }
    },
    "place": {
        "title": "Type of Place",
        "possibleValues": {
            "ps": "Public → Street",
            "pf": "Public → Facade",
            "pp": "Public → Park",
            "sc": "Semi-Public → Company",
            "sb": "Semi-Public → Building",
            "sC": "Semi-Public → Cemetery"
        }
    }, 
    "type": {
        "title": "Type",
        "possibleValues": {
            "bmo": "Prominent → Monument",
            "bme": "Prominent → Memorial room",
            "be":  "Prominent → Exhibition",
            "ba":  "Prominent → Art installation",
            "sp":  "Small → Plaque",
            "sps": "Small → Pavement stone",
            "ssp": "Small → Street plaque",
            "spp": "Small → Park plaque"
        }
    },
    "identityOfRemembered": {
        "title": "Social Identity",
        "possibleValues": {
            "o":  "Resistance &amp; liberation → Opponents and resisters",
            "s":  "Resistance &amp; liberation → Allied and resistant soldiers",
            "v":  "Persecution → All Nazi victims",
            "fl": "Persecution → Forced Laborers",
            "j":  "Persecution → Jews",
            "rs": "Persecution → Roma and Sinti",
            "m":  "Persecution → Victims of NS medicine",
            "h":  "Persecution → Homosexuals",
            "r":  "Persecution → Religious",
            "sl":  "Persecution → Slovenes",
            "O":  "Persecution → Other"
        }
    },
    "identityOfRememberedCoarse": {
        "title": "Identity of Remembered",
        "possibleValues": {
            "R": "Resistance &amp; liberation",
            "P": "Persecution",
            "B": "Both"
        }
    },
    "genderOfRemembered": {
        "title": "Personal Identity",
        "possibleValues": {
            "nf": "Female, individual",
            "nm": "Male, individual",
            "nb": "Both, individual",
            "cf": "Female, collective",
            "cm": "Male, collective",
            "cb": "Universal, collective"
        }
    }, 
    "formOfViolence": {
        "title": "Form of Violence",
        "possibleValues": {
            "e":  "Takeover",
            "i":  "Imprisonment",
            "f":  "February 1934",
            "p":  "Deprivation", 
            "d":  "Deportation",
            "E":  "Exile",
            "D":  "Death",
            "P":  "Persecution",
            "fl": "Forced labor",
            "r":  "Resistance",
            "l":  "Liberation",
            "o":  "Other",
            "w":  "War"
        }
    },
    "formOfViolenceByRegime": {
        "title": "Form of Violence",
        "possibleValues": {
            "ae":  "Austrofascism → Takeover",
            "af":  "Austrofascism → February 1934",
            "ai":  "Austrofascism → Imprisonment",
            "aE":  "Austrofascism → Exile",
            "aD":  "Austrofascism → Death",
            "ap":  "Austrofascism → Persecution",
            "ar":  "Austrofascism → Resistance",
            "ne":  "Nazism → Takeover",
            "ni":  "Nazism → Imprisonment",
            "np":  "Nazism → Persecution",
            "nd":  "Nazism → Deprivation",
            "nE":  "Nazism → Exile",
            "nfl": "Nazism → Forced Labour",
            "nD":  "Nazism → Death",
            "nr":  "Nazism → Resistance",
            "nl":  "Nazism → Liberation"
        }
    },
    "founders": {
        "title": "Founders",
        "possibleValues": {
            "f": "Foreign states",
            "a": "Federal authorities",
            "m": "Municipal authorities",
            "s": "Schools and universities",
            "p": "Other public institutions",
            "b": "Business and staff",
            "P": "Parties and their survivor's associations",
            "S": "Other survivor's associations",
            "r": "Remembrance associations",
            "c": "Cultural associations",
            "C": "Churches",
            "i": "Individuals"
        }
    }, 
    "foundersDetailed": {
        "title": "Founders",
        "possibleValues": {
            "fc": "Foreign States → China",
            "fi": "Foreign States → Israel",
            "fe": "Foreign States → UK",
            "fa": "Foreign States → USA",
            "fp": "Foreign States → Poland",
            "fy": "Foreign States → Yugoslavia",
            "fs": "Foreign States → USSR",
            "ag": "Federal authorities → Government",
            "am": "Federal authorities → Ministries",
            "ap": "Federal authorities → Parliament",
            "mc": "Municipal authorities → City council",
            "md": "Municipal authorities → District council",
            "mm": "Municipal authorities → District museums",
            "pu": "Public institutions → Universities",
            "ps": "Public institutions → Schools",
            "pa": "Public institutions → Adult Education Center",
            "pd": "Public institutions → DÖW",
            "pc": "Public institutions → Chambers",
            "pm": "Public institutions → Museums",
            "cb": "Civil society → Business, staff, trade unions",
            "cs": "Civil society → Socialdemocratic Party",
            "co": "Civil society → People's Party",
            "cc": "Civil society → Communist Party",
            "cn": "Civil society → Nonparty survivor's associations",
            "cr": "Civil society → Remembrance associations",
            "ca": "Civil society → Cultural associations",
            "cC": "Civil society → Churches",
            "ci": "Civil society → Individuals"
        }
    },
    "fundingForMemento": {
        "title": "Funding",
        "possibleValues": {
            "fn": "Federal → National Fund of the Republic",
            "ff": "Federal → Future Fund of the Republic",
            "mk": "Municipal → Kunst im Öffentlichen Raum"
        }
    }
}
